Evaluate Performance in Regression (tidymodels) – HDS MSc - Module 3 - Overfitting, DT & RF
…
Now imagine we believe that the relationship between glucose and age is cubic. We can fit a polynomial like in class:

cubic_spec <- linear_reg() %>%
set_engine("lm")

cubic_rec <- recipe(glucose ~ age, data = train_data) %>%
step_poly(age, degree = 3)

Have you seen? As this is feature transformation, we have included it as part of the recepies! As if it were part of the pre-processing. Check out how the data changes by viewing the pre-processing transformation

bake(cubic_rec %>% 
       prep(), new_data = NULL)

# A tibble: 537 × 4
   glucose age_poly_1 age_poly_2 age_poly_3
     <dbl>      <dbl>      <dbl>      <dbl>
 1     138  -0.0443       0.0469   -0.0485 
 2      74   0.0214      -0.0491    0.0166 
 3     143   0.0506      -0.0377   -0.0373 
 4      87  -0.0443       0.0469   -0.0485 
 5      85   0.0323      -0.0487   -0.00292
 6      78  -0.0297       0.0110    0.00882
 7     100   0.0469      -0.0409   -0.0307 
 8     197  -0.00783     -0.0273    0.0408 
 9     119  -0.000530    -0.0358    0.0404 
10     189   0.0944       0.0420   -0.0616 
# ℹ 527 more rows
…
