Decision Trees in Classification (tidymodels) – HDS MSc - Module 3 - Overfitting, DT & RF
…
Computational engine: rpart 

Which parameters to try? There are default parameters that you can check associated to the model libraries https://dials.tidymodels.org/articles/Basics.html For example we could create models with these range of values and see which ones works best:

3. Define a tuning grid

tree_grid <- grid_regular(
  tree_depth(range = c(1L, 10L)),
  min_n(range = c(2L, 30L)),
  levels = 5
)

tree_grid

# A tibble: 25 × 2
   tree_depth min_n
        <int> <int>
 1          1     2
 2          3     2
 3          5     2
 4          7     2
 5         10     2
 6          1     9
 7          3     9
 8          5     9
 9          7     9
10         10     9
# ℹ 15 more rows
…
# A tibble: 5 × 8
  tree_depth min_n .metric .estimator  mean     n std_err .config         
       <int> <int> <chr>   <chr>      <dbl> <int>   <dbl> <chr>           
1          7    30 roc_auc binary     0.742     1      NA pre0_mod20_post0
2         10    30 roc_auc binary     0.742     1      NA pre0_mod25_post0
3          3     2 roc_auc binary     0.734     1      NA pre0_mod06_post0
4          3     9 roc_auc binary     0.734     1      NA pre0_mod07_post0
5          3    16 roc_auc binary     0.734     1      NA pre0_mod08_post0

tree_metrics <- collect_metrics(tree_res) %>%
  filter(.metric == "roc_auc")

tree_metrics

# A tibble: 25 × 8
   tree_depth min_n .metric .estimator  mean     n std_err .config         
        <int> <int> <chr>   <chr>      <dbl> <int>   <dbl> <chr>           
 1          1     2 roc_auc binary     0.730     1      NA pre0_mod01_post0
 2          1     9 roc_auc binary     0.730     1      NA pre0_mod02_post0
 3          1    16 roc_auc binary     0.730     1      NA pre0_mod03_post0
 4          1    23 roc_auc binary     0.730     1      NA pre0_mod04_post0
 5          1    30 roc_auc binary     0.730     1      NA pre0_mod05_post0
 6          3     2 roc_auc binary     0.734     1      NA pre0_mod06_post0
 7          3     9 roc_auc binary     0.734     1      NA pre0_mod07_post0
 8          3    16 roc_auc binary     0.734     1      NA pre0_mod08_post0
 9          3    23 roc_auc binary     0.733     1      NA pre0_mod09_post0
10          3    30 roc_auc binary     0.725     1      NA pre0_mod10_post0
# ℹ 15 more rows
…
