Random Forest Classification (tidymodels) – HDS MSc - Module 3 - Overfitting, DT & RF
…
Computational engine: ranger 

4. Hyperparameter grid and resamples

We want to search over a grid of values for mtry and min_n:

rf_grid <- grid_regular(
  mtry(range = c(2L, 7L)),
  min_n(range = c(2L, 10L)),
  levels = 5
)

rf_grid

# A tibble: 25 × 2
    mtry min_n
   <int> <int>
 1     2     2
 2     3     2
 3     4     2
 4     5     2
 5     7     2
 6     2     4
 7     3     4
 8     4     4
 9     5     4
10     7     4
# ℹ 15 more rows
…
# Tuning results
# Bootstrap sampling 
# A tibble: 1 × 4
  splits            id         .metrics          .notes          
  <list>            <chr>      <list>            <list>          
1 <split [537/191]> Bootstrap1 <tibble [50 × 6]> <tibble [0 × 4]>

5.1 Inspect and visualise the tuning results

Collect tuning results:

rf_metrics <- collect_metrics(rf_res)
rf_metrics

# A tibble: 50 × 8
    mtry min_n .metric  .estimator  mean     n std_err .config         
   <int> <int> <chr>    <chr>      <dbl> <int>   <dbl> <chr>           
 1     2     2 accuracy binary     0.764     1      NA pre0_mod01_post0
 2     2     2 roc_auc  binary     0.852     1      NA pre0_mod01_post0
 3     2     4 accuracy binary     0.749     1      NA pre0_mod02_post0
 4     2     4 roc_auc  binary     0.849     1      NA pre0_mod02_post0
 5     2     6 accuracy binary     0.764     1      NA pre0_mod03_post0
 6     2     6 roc_auc  binary     0.851     1      NA pre0_mod03_post0
 7     2     8 accuracy binary     0.764     1      NA pre0_mod04_post0
 8     2     8 roc_auc  binary     0.854     1      NA pre0_mod04_post0
 9     2    10 accuracy binary     0.764     1      NA pre0_mod05_post0
10     2    10 roc_auc  binary     0.853     1      NA pre0_mod05_post0
# ℹ 40 more rows
…
Filter by ROC AUC:

rf_metrics_auc <- rf_metrics %>%
  filter(.metric == "roc_auc")

rf_metrics_auc

# A tibble: 25 × 8
    mtry min_n .metric .estimator  mean     n std_err .config         
   <int> <int> <chr>   <chr>      <dbl> <int>   <dbl> <chr>           
 1     2     2 roc_auc binary     0.852     1      NA pre0_mod01_post0
 2     2     4 roc_auc binary     0.849     1      NA pre0_mod02_post0
 3     2     6 roc_auc binary     0.851     1      NA pre0_mod03_post0
 4     2     8 roc_auc binary     0.854     1      NA pre0_mod04_post0
 5     2    10 roc_auc binary     0.853     1      NA pre0_mod05_post0
 6     3     2 roc_auc binary     0.846     1      NA pre0_mod06_post0
 7     3     4 roc_auc binary     0.846     1      NA pre0_mod07_post0
 8     3     6 roc_auc binary     0.850     1      NA pre0_mod08_post0
 9     3     8 roc_auc binary     0.852     1      NA pre0_mod09_post0
10     3    10 roc_auc binary     0.850     1      NA pre0_mod10_post0
# ℹ 15 more rows
…
